:100000000EC015C014C013C012C011C010C00FC064
:100010000EC00DC00CC00BC00AC009C008C011241E
:100020001FBECFE5D2E0DEBFCDBF02D023C0E8CFF8
:10003000B89AB99A81E090E020E048E552E0C09A91
:10004000C198FC013197F1F7C098C19AFA01E81BF9
:10005000F90B3197F1F7211108C0019621E087359E
:1000600032E0930760F720E0EACF019782309105F4
:0800700030F7F9CFF894FFCF3F
:00000001FF
